{
  "prepare_queue": {
    "installed": [],
    "uninstalled": []
  },
  "config_munge": {
    "files": {}
  },
  "installed_plugins": {
    "cordova-plugin-whitelist": {
      "PACKAGE_NAME": "ro.pixel_perfect.student"
    },
    "cordova-plugin-browsersync": {
      "PACKAGE_NAME": "ro.pixel_perfect.student"
    },
    "cordova-plugin-fcm": {
      "PACKAGE_NAME": "ro.pixel_perfect.student"
    }
  },
  "dependent_plugins": {}
}